# this file was automatically generated by ResAsm

Icons.Svn.StatusImages = SubversionIcons\Svn.StatusImages.png
Svn.ApplyPatch         = SubversionIcons\Svn.ApplyPatch.png
Svn.Checkout           = SubversionIcons\Svn.Checkout.png
Svn.Commit             = SubversionIcons\Svn.Commit.png
Svn.CreatePatch        = SubversionIcons\Svn.CreatePatch.png
Svn.Export             = SubversionIcons\Svn.Export.png
Svn.Import             = SubversionIcons\Svn.Import.png
Svn.Update             = SubversionIcons\Svn.Update.png


# Nes project browser icons
ProjectBrowser.Folder.Closed = ProjectBrowserIcons\Folder.Closed.png
ProjectBrowser.Folder.Open   = ProjectBrowserIcons\Folder.Open.png
ProjectBrowser.Folder.Missing = ProjectBrowserIcons\Folder.Missing.png
ProjectBrowser.GhostFolder.Closed = ProjectBrowserIcons\GhostFolder.Closed.png
ProjectBrowser.GhostFolder.Open   = ProjectBrowserIcons\GhostFolder.Open.png
ProjectBrowser.PropertyFolder.Closed = ProjectBrowserIcons\PropertyFolder.Closed.png
ProjectBrowser.PropertyFolder.Open   = ProjectBrowserIcons\PropertyFolder.Open.png
ProjectBrowser.ReferenceFolder.Closed = ProjectBrowserIcons\ReferenceFolder.Closed.png
ProjectBrowser.ReferenceFolder.Open   = ProjectBrowserIcons\ReferenceFolder.Open.png
ProjectBrowser.GhostFile              = ProjectBrowserIcons\GhostFile.png
ProjectBrowser.CodeBehind             = ProjectBrowserIcons\CodeBehind.png
ProjectBrowser.MissingFile            = ProjectBrowserIcons\MissingFile.png
ProjectBrowser.ProjectWarning         = ProjectBrowserIcons\ProjectWarning.png
ProjectBrowser.MissingProject         = ProjectBrowserIcons\MissingProject.png
ProjectBrowser.MissingSolution        = ProjectBrowserIcons\MissingSolution.png
ProjectBrowser.Solution               = ProjectBrowserIcons\Solution.png
ProjectBrowser.Toolbar.Refresh         = ProjectBrowserIcons\Toolbar.Refresh.png
ProjectBrowser.Toolbar.ShowHiddenFiles = ProjectBrowserIcons\Toolbar.ShowHiddenFiles.png
ProjectBrowser.SolutionFolder.Closed = ProjectBrowserIcons\SolutionFolder.Closed.png
ProjectBrowser.SolutionFolder.Open   = ProjectBrowserIcons\SolutionFolder.Open.png
ProjectBrowser.SolutionFolder.CreateNew   = ProjectBrowserIcons\SolutionFolder.CreateNew.png

ProjectBrowser.WebReferenceFolder.Closed = ProjectBrowserIcons\WebReferenceFolder.Closed.png
ProjectBrowser.WebReferenceFolder.Open   = ProjectBrowserIcons\WebReferenceFolder.Open.png
ProjectBrowser.WebReference              = ProjectBrowserIcons\WebReference.png

#Output pad

OutputPad.Toolbar.ClearOutputWindow = OutputPadIcons\ClearOutputWindow.png
OutputPad.Toolbar.ToggleWordWrap    = OutputPadIcons\ToggleWordWrap.png


Icons.16x16.OpenFolderBitmap                      = ProjectBrowserIcons\Folder.Open.png
Icons.16x16.ClosedFolderBitmap                    = ProjectBrowserIcons\Folder.Closed.png

Icons.16x16.OpenReferenceFolder                   = ProjectBrowserIcons\GhostFolder.Open.png
Icons.16x16.ClosedReferenceFolder                 = ProjectBrowserIcons\GhostFolder.Closed.png

Icons.16x16.OpenResourceFolder                    = ProjectBrowserIcons\PropertyFolder.Open.png
Icons.16x16.ClosedResourceFolder                  = ProjectBrowserIcons\PropertyFolder.Closed.png


Icons.16x16.ArrowLeftRight = BitmapResources-data\Icons.16x16.ArrowLeftRight.png
Icons.16x16.ArrowDown      = BitmapResources-data\Icons.16x16.ArrowDown.png
Icons.16x16.ArrowUp        = BitmapResources-data\Icons.16x16.ArrowUp.png
Icons.16x16.OK             = BitmapResources-data\Icons.16x16.OK.png

Icons.16x16.Debug.Start                          = DebuggerIcons\Icons.16x16.Debug.Start.png
Icons.16x16.Debug.StartWithoutDebugging          = DebuggerIcons\Icons.16x16.Debug.StartWithoutDebugging.png
Icons.16x16.Debug.StopProcess                    = DebuggerIcons\Icons.16x16.Debug.StopProcess.png
Icons.16x16.Debug.Break                          = DebuggerIcons\Icons.16x16.Debug.Break.png
Icons.16x16.Debug.Continue                       = DebuggerIcons\Icons.16x16.Debug.Continue.png
Icons.16x16.Debug.StepOver                       = DebuggerIcons\Icons.16x16.Debug.StepOver.png
Icons.16x16.Debug.StepInto                       = DebuggerIcons\Icons.16x16.Debug.StepInto.png
Icons.16x16.Debug.StepOut                        = DebuggerIcons\Icons.16x16.Debug.StepOut.png

Icons.16x16.TestRunner.Yellow                     = BitmapResources-data\Icons.16x16.TestRunner.Yellow.png
Icons.16x16.TestRunner.Red                        = BitmapResources-data\Icons.16x16.TestRunner.Red.png
Icons.16x16.TestRunner.Green                      = BitmapResources-data\Icons.16x16.TestRunner.Green.png
Icons.16x16.TestRunner.Gray                       = BitmapResources-data\Icons.16x16.TestRunner.Gray.png
ErrorReport                                       = BitmapResources-data\ErrorReport.png
Icons.16x16.StopProcess                           = BitmapResources-data\Icons.16x16.StopProcess.png
Icons.16x16.Desktop                               = BitmapResources-data\Icons.16x16.Desktop.png
Icons.16x16.MyComputer                            = BitmapResources-data\Icons.16x16.MyComputer.png
Icons.16x16.PersonalFiles                         = BitmapResources-data\Icons.16x16.PersonalFiles.png
Icons.16x16.NewProjectIcon                        = BitmapResources-data\Icons.16x16.NewProjectIcon.png
Icons.TipOfTheDayIcon                             = BitmapResources-data\Icons.TipOfTheDayIcon.png
Icons.16x16.Indent                                = BitmapResources-data\Icons.16x16.Indent.png
Icons.16x16.ResourceEditor.icon                   = BitmapResources-data\Icons.16x16.ResourceEditor.icon.ico
Icons.16x16.FullScreen                            = BitmapResources-data\Icons.16x16.FullScreen.png
Icons.16x16.AdjustBackgroundColor                 = BitmapResources-data\Icons.16x16.AdjustBackgroundColor.png
Icons.16x16.HelpOpenFolder                        = BitmapResources-data\Icons.16x16.HelpOpenFolder.png
Icons.16x16.SmallIconsIcon                        = BitmapResources-data\Icons.16x16.SmallIconsIcon.png
Icons.16x16.HtmlElements.AnchorElement            = BitmapResources-data\Icons.16x16.HtmlElements.AnchorElement.png
Icons.16x16.Assembly                              = BitmapResources-data\Icons.16x16.Assembly.png
Icons.16x16.TipOfTheDay                           = BitmapResources-data\Icons.16x16.TipOfTheDay.png
Icons.16x16.Right                                 = BitmapResources-data\Icons.16x16.Right.png
Icons.16x16.CDROM                                 = BitmapResources-data\Icons.16x16.CDROM.png
Icons.16x16.RedoIcon                              = BitmapResources-data\Icons.16x16.RedoIcon.png
Icons.16x16.CloseAllDocuments                     = BitmapResources-data\Icons.16x16.CloseAllDocuments.png
Icons.16x16.HtmlElements.InputRadioElement        = BitmapResources-data\Icons.16x16.HtmlElements.InputRadioElement.png
Icons.16x16.FormsDesigner.SendToBack              = BitmapResources-data\Icons.16x16.FormsDesigner.SendToBack.png
Icons.16x16.BrowserAfter                          = BitmapResources-data\Icons.16x16.BrowserAfter.png
Icons.16x16.BrowserHome                           = BitmapResources-data\Icons.16x16.BrowserHome.gif
Icons.16x16.BrowserWindow                         = BitmapResources-data\Icons.16x16.BrowserWindow.png
Icons.SharpDevelopIcon                            = BitmapResources-data\Icons.SharpDevelopIcon.ico
Icons.16x16.HtmlElements.InputPasswordElement     = BitmapResources-data\Icons.16x16.HtmlElements.InputPasswordElement.png
Icons.16x16.HtmlElements.InputCheckBoxElement     = BitmapResources-data\Icons.16x16.HtmlElements.InputCheckBoxElement.png
Icons.16x16.FormsDesigner.AlignCenters            = BitmapResources-data\Icons.16x16.FormsDesigner.AlignCenters.png
Icons.16x16.Center                                = BitmapResources-data\Icons.16x16.Center.png
Icons.16x16.FormsDesigner.CenterHorizontally      = BitmapResources-data\Icons.16x16.FormsDesigner.CenterHorizontally.png
Icons.16x16.FormsDesigner.LockControls            = BitmapResources-data\Icons.16x16.FormsDesigner.LockControls.png
Icons.16x16.FormsDesigner.DecreaseVerticalSpace   = BitmapResources-data\Icons.16x16.FormsDesigner.DecreaseVerticalSpace.png
Icons.16x16.NewFolderIcon                         = BitmapResources-data\Icons.16x16.NewFolderIcon.png
Icons.16x16.UnderlineText                         = BitmapResources-data\Icons.16x16.UnderlineText.png
Icons.16x16.RunAllIcon                            = BitmapResources-data\Icons.16x16.RunAllIcon.png
Icons.16x16.RunProgramIcon                        = BitmapResources-data\Icons.16x16.RunProgramIcon.png
Icons.16x16.HtmlElements.TableElement             = BitmapResources-data\Icons.16x16.HtmlElements.TableElement.png
Icons.16x16.ResourceEditor.obj                    = BitmapResources-data\Icons.16x16.ResourceEditor.obj.ico
Icons.16x16.ResourceEditor.bin                    = BitmapResources-data\Icons.16x16.ResourceEditor.bin.ico
Icons.16x16.DesignPanel                           = BitmapResources-data\Icons.16x16.DesignPanel.png
Icons.ClassBrowserIcon                            = BitmapResources-data\Icons.ClassBrowserIcon.png
Icons.16x16.HtmlElements.InputImageElement        = BitmapResources-data\Icons.16x16.HtmlElements.InputImageElement.png
Icons.16x16.FormsDesigner.AlignBottoms            = BitmapResources-data\Icons.16x16.FormsDesigner.AlignBottoms.png
Icons.16x16.FormsDesigner.RemoveVerticalSpace     = BitmapResources-data\Icons.16x16.FormsDesigner.RemoveVerticalSpace.png
Icons.16x16.ResourceEditor.string                 = BitmapResources-data\Icons.16x16.ResourceEditor.string.ico
Icons.32x32.Error                                 = BitmapResources-data\Icons.32x32.Error.png
Icons.16x16.LargeIconsIcon                        = BitmapResources-data\Icons.16x16.LargeIconsIcon.png
Icons.16x16.NextWindowIcon                        = BitmapResources-data\Icons.16x16.NextWindowIcon.png
Icons.16x16.FormsDesigner.CenterVertically        = BitmapResources-data\Icons.16x16.FormsDesigner.CenterVertically.png
Icons.16x16.Options                               = BitmapResources-data\Icons.16x16.Options.png
Icons.16x16.FormsDesigner.EqualizeHorizontalSpace = BitmapResources-data\Icons.16x16.FormsDesigner.EqualizeHorizontalSpace.png
Icons.16x16.FormsDesigner.IncreaseHorizontalSpace = BitmapResources-data\Icons.16x16.FormsDesigner.IncreaseHorizontalSpace.png
Icons.16x16.HtmlElements.ImageElement             = BitmapResources-data\Icons.16x16.HtmlElements.ImageElement.png
Icons.16x16.HtmlElements.LabelElement             = BitmapResources-data\Icons.16x16.HtmlElements.LabelElement.png
Icons.16x16.WebSearchIcon                         = BitmapResources-data\Icons.16x16.WebSearchIcon.png
Icons.16x16.FormsDesigner.AlignToGrid             = BitmapResources-data\Icons.16x16.FormsDesigner.AlignToGrid.png
Icons.16x16.HtmlElements.InputResetElement        = BitmapResources-data\Icons.16x16.HtmlElements.InputResetElement.png
Icons.16x16.CommentRegion                         = BitmapResources-data\Icons.16x16.CommentRegion.png
Icons.16x16.PreView                               = BitmapResources-data\Icons.16x16.PreView.png
Icons.16x16.FormsDesigner.AlignRights             = BitmapResources-data\Icons.16x16.FormsDesigner.AlignRights.png
Icons.FileScoutIcon                               = BitmapResources-data\Icons.FileScoutIcon.png
Icons.ProjectScoutIcon                            = BitmapResources-data\Icons.ProjectScoutIcon.png
Icons.16x16.HtmlElements.PanelElement             = BitmapResources-data\Icons.16x16.HtmlElements.PanelElement.png
Icons.16x16.AdjustColor                           = BitmapResources-data\Icons.16x16.AdjustColor.png
Icons.16x16.SideBarDocument                       = BitmapResources-data\Icons.16x16.SideBarDocument.png
Icons.16x16.Information                           = BitmapResources-data\Icons.16x16.Information.png
Icons.16x16.CopyLeftIcon                          = BitmapResources-data\Icons.16x16.CopyLeftIcon.png
Icons.16x16.FormsDesigner.AlignLefts              = BitmapResources-data\Icons.16x16.FormsDesigner.AlignLefts.png
Icons.16x16.FormsDesigner.MakeSameHeight          = BitmapResources-data\Icons.16x16.FormsDesigner.MakeSameHeight.png
Icons.16x16.BrowserCancel                         = BitmapResources-data\Icons.16x16.BrowserCancel.png
Icons.16x16.HtmlElements.DivElement               = BitmapResources-data\Icons.16x16.HtmlElements.DivElement.png
Icons.16x16.BuildCurrentSelectedProject           = BitmapResources-data\Icons.16x16.BuildCurrentSelectedProject.png
Icons.16x16.HelpTopic                             = BitmapResources-data\Icons.16x16.HelpTopic.png
Icons.16x16.PrevWindowIcon                        = BitmapResources-data\Icons.16x16.PrevWindowIcon.png
Icons.16x16.HtmlElements.SelectElement            = BitmapResources-data\Icons.16x16.HtmlElements.SelectElement.png
Icons.16x16.OpenAssembly                          = BitmapResources-data\Icons.16x16.OpenAssembly.png
Icons.16x16.HtmlElements.InputSubmitElement       = BitmapResources-data\Icons.16x16.HtmlElements.InputSubmitElement.png
Icons.16x16.CancelIcon                            = BitmapResources-data\Icons.16x16.CancelIcon.png
Icons.16x16.ItalicText                            = BitmapResources-data\Icons.16x16.ItalicText.png
Icons.16x16.BrowserBefore                         = BitmapResources-data\Icons.16x16.BrowserBefore.png
Icons.16x16.HtmlElements.InputTextElement         = BitmapResources-data\Icons.16x16.HtmlElements.InputTextElement.png
Icons.16x16.HelpClosedFolder                      = BitmapResources-data\Icons.16x16.HelpClosedFolder.png
Icons.16x16.CutIcon                               = BitmapResources-data\Icons.16x16.CutIcon.png
Icons.16x16.BoldText                              = BitmapResources-data\Icons.16x16.BoldText.png
GeneralWizardBackground                           = BitmapResources-data\GeneralWizardBackground.png
Icons.16x16.HtmlElements.TextAreaElement          = BitmapResources-data\Icons.16x16.HtmlElements.TextAreaElement.png
Icons.16x16.SaveAllIcon                           = BitmapResources-data\Icons.16x16.SaveAllIcon.png
Icons.16x16.Left                                  = BitmapResources-data\Icons.16x16.Left.png
Icons.16x16.FormsDesigner.SizeToGrid              = BitmapResources-data\Icons.16x16.FormsDesigner.SizeToGrid.png
Icons.16x16.HtmlElements.FormElement              = BitmapResources-data\Icons.16x16.HtmlElements.FormElement.png
Icons.16x16.HtmlElements.InputFileElement         = BitmapResources-data\Icons.16x16.HtmlElements.InputFileElement.png
Icons.16x16.NewDocumentIcon                       = BitmapResources-data\Icons.16x16.NewDocumentIcon.png
Icons.16x16.SelectionArrow                        = BitmapResources-data\Icons.16x16.SelectionArrow.png
Icons.16x16.Question                              = BitmapResources-data\Icons.16x16.Question.png
Icons.16x16.PasteIcon                             = BitmapResources-data\Icons.16x16.PasteIcon.png
Icons.32x32.Warning                               = BitmapResources-data\Icons.32x32.Warning.png
Icons.16x16.FormsDesigner.MakeSameSize            = BitmapResources-data\Icons.16x16.FormsDesigner.MakeSameSize.png
Icons.16x16.Error                                 = BitmapResources-data\Icons.16x16.Error.png
Icons.16x16.HtmlElements.InputButtonElement       = BitmapResources-data\Icons.16x16.HtmlElements.InputButtonElement.png
Icons.16x16.NETWORK                               = BitmapResources-data\Icons.16x16.NETWORK.png
Icons.16x16.Library                               = BitmapResources-data\Icons.16x16.Library.png
Icons.16x16.AboutIcon                             = BitmapResources-data\Icons.16x16.AboutIcon.png
Icons.16x16.LowerToUpperCase                      = BitmapResources-data\Icons.16x16.LowerToUpperCase.png
Icons.16x16.UndoIcon                              = BitmapResources-data\Icons.16x16.UndoIcon.png
Icons.16x16.FormsDesigner.AlignMiddles            = BitmapResources-data\Icons.16x16.FormsDesigner.AlignMiddles.png
Icons.16x16.ReplaceIcon                           = BitmapResources-data\Icons.16x16.ReplaceIcon.png
Icons.16x16.FormsDesigner.MakeSameWidth           = BitmapResources-data\Icons.16x16.FormsDesigner.MakeSameWidth.png
Icons.16x16.OpenProjectIcon                       = BitmapResources-data\Icons.16x16.OpenProjectIcon.png
Icons.16x16.HtmlElements.InputHiddenElement       = BitmapResources-data\Icons.16x16.HtmlElements.InputHiddenElement.png
Icons.16x16.SuperTypes                            = BitmapResources-data\Icons.16x16.SuperTypes.png
Icons.16x16.BuildCombine                          = BitmapResources-data\Icons.16x16.BuildCombine.png
Icons.16x16.HelpIcon                              = BitmapResources-data\Icons.16x16.HelpIcon.png
Icons.16x16.ReplaceInFiles                        = BitmapResources-data\Icons.16x16.ReplaceInFiles.png
Icons.16x16.FLOPPY                                = BitmapResources-data\Icons.16x16.FLOPPY.png
Icons.AboutImage                                  = BitmapResources-data\Icons.AboutImage.png
Icons.16x16.HtmlElements.HorizontalRuleElement    = BitmapResources-data\Icons.16x16.HtmlElements.HorizontalRuleElement.png
Icons.16x16.FormsDesigner.ShowTabOrder            = BitmapResources-data\Icons.16x16.FormsDesigner.ShowTabOrder.png
Icons.16x16.FindInFiles                           = BitmapResources-data\Icons.16x16.FindInFiles.png
Icons.16x16.ResourceEditor.cursor                 = BitmapResources-data\Icons.16x16.ResourceEditor.cursor.ico
Icons.16x16.FormsDesigner.PointerIcon             = BitmapResources-data\Icons.16x16.FormsDesigner.PointerIcon.png
Icons.16x16.CopyIcon                              = BitmapResources-data\Icons.16x16.CopyIcon.png
Icons.16x16.PropertiesIcon                        = BitmapResources-data\Icons.16x16.PropertiesIcon.png
Icons.16x16.OutDent                               = BitmapResources-data\Icons.16x16.OutDent.png
Icons.16x16.DeleteIcon                            = BitmapResources-data\Icons.16x16.DeleteIcon.png
Icons.16x16.FormsDesigner.IncreaseVerticalSpace   = BitmapResources-data\Icons.16x16.FormsDesigner.IncreaseVerticalSpace.png
Icons.16x16.UpperToLowerCase                      = BitmapResources-data\Icons.16x16.UpperToLowerCase.png
Icons.16x16.FindNextIcon                          = BitmapResources-data\Icons.16x16.FindNextIcon.png
Icons.32x32.Information                           = BitmapResources-data\Icons.32x32.Information.png
Icons.16x16.FormsDesigner.BringToFront            = BitmapResources-data\Icons.16x16.FormsDesigner.BringToFront.png
Icons.16x16.BrowserRefresh                        = BitmapResources-data\Icons.16x16.BrowserRefresh.png
Icons.16x16.HtmlElements.ListBoxElement           = BitmapResources-data\Icons.16x16.HtmlElements.ListBoxElement.png
Icons.16x16.FormsDesigner.DecreaseHorizontalSpace = BitmapResources-data\Icons.16x16.FormsDesigner.DecreaseHorizontalSpace.png
Icons.16x16.ResourceEditor.bmp                    = BitmapResources-data\Icons.16x16.ResourceEditor.bmp.ico
Icons.16x16.SubTypes                              = BitmapResources-data\Icons.16x16.SubTypes.png
Icons.16x16.DRIVE                                 = BitmapResources-data\Icons.16x16.DRIVE.png
Icons.16x16.HtmlElements.ButtonElement            = BitmapResources-data\Icons.16x16.HtmlElements.ButtonElement.png
Icons.16x16.Print                                 = BitmapResources-data\Icons.16x16.Print.png
Icons.32x32.Question                              = BitmapResources-data\Icons.32x32.Question.png
Icons.16x16.FormsDesigner.ViewCode                = BitmapResources-data\Icons.16x16.FormsDesigner.ViewCode.png
Icons.16x16.FormsDesigner.AlignTops               = BitmapResources-data\Icons.16x16.FormsDesigner.AlignTops.png
Icons.16x16.Warning                               = BitmapResources-data\Icons.16x16.Warning.png
Icons.16x16.HtmlElements.SpanElement              = BitmapResources-data\Icons.16x16.HtmlElements.SpanElement.png
Icons.16x16.FormsDesigner.RemoveHorizontalSpace   = BitmapResources-data\Icons.16x16.FormsDesigner.RemoveHorizontalSpace.png
Icons.16x16.HtmlElements.IFrameElement            = BitmapResources-data\Icons.16x16.HtmlElements.IFrameElement.png
Icons.16x16.FormsDesigner.EqualizeVerticalSpace   = BitmapResources-data\Icons.16x16.FormsDesigner.EqualizeVerticalSpace.png
Icons.16x16.FindIcon                              = BitmapResources-data\Icons.16x16.FindIcon.png
Icons.16x16.HtmlElements.Element                  = BitmapResources-data\Icons.16x16.HtmlElements.Element.png
Icons.16x16.SaveIcon                              = BitmapResources-data\Icons.16x16.SaveIcon.png
Icons.16x16.ILDasm                                = BitmapResources-data\Icons.16x16.ILDasm.png
Icons.16x16.CloseFileIcon                         = BitmapResources-data\Icons.16x16.CloseFileIcon.png
Icons.16x16.OpenFileIcon                          = BitmapResources-data\Icons.16x16.OpenFileIcon.png
Icons.16x16.HtmlElements.FieldSetElement          = BitmapResources-data\Icons.16x16.HtmlElements.FieldSetElement.png
Icons.16x16.SplitWindow                           = BitmapResources-data\Icons.16x16.SplitWindow.png

#pad icons
PadIcons.ErrorList                                = PadIcons\ErrorList.png
PadIcons.TaskList                                 = PadIcons\TaskList.png
PadIcons.Output                                   = PadIcons\Output.png
PadIcons.Toolbar                                  = PadIcons\Toolbar.png
PadIcons.NUnitTest                                = PadIcons\NUnit.png
PadIcons.MbUnitTest                               = PadIcons\MbUnit.png
PadIcons.FindResults                              = PadIcons\FindResults.png
PadIcons.FileBrowser                              = PadIcons\FileBrowser.png
PadIcons.ClassBrowser                             = PadIcons\ClassBrowser.png
PadIcons.ProjectBrowser                           = PadIcons\ProjectBrowser.png
PadIcons.Bookmarks                                = PadIcons\Bookmarks.png
PadIcons.DefinitionView							  = PadIcons\DefinitionView.png
PadIcons.BreakPoints							  = PadIcons\Breakpoints.png
PadIcons.CallStack								  = PadIcons\CallStack.png
PadIcons.LoadedModules							  = PadIcons\LoadedModules.png
PadIcons.LocalVariables							  = PadIcons\LocalVariables.png
PadIcons.Threads								  = PadIcons\Threads.png
PadIcons.Exceptions								  = PadIcons\Exceptions.png
PadIcons.XPathQuery								  = PadIcons\XPathQuery.png

#SharpQuery icons
Icons.16x16.SharpQuery.DataBaseRoot             = SharpQueryIcons\Icons.16x16.SharpQuery.Database.png
Icons.16x16.SharpQuery.DatabaseConnectionClose  = SharpQueryIcons\Icons.16x16.SharpQuery.DatabaseConnectionClose.png
Icons.16x16.SharpQuery.DatabaseConnection       = SharpQueryIcons\Icons.16x16.SharpQuery.DatabaseConnection.png
Icons.16x16.SharpQuery.TablesRoot               = SharpQueryIcons\Icons.16x16.SharpQuery.TablesRoot.png
Icons.16x16.SharpQuery.ViewsRoot                = SharpQueryIcons\Icons.16x16.SharpQuery.ViewsRoot.png
Icons.16x16.SharpQuery.ProceduresRoot           = SharpQueryIcons\Icons.16x16.SharpQuery.ProceduresRoot.png
Icons.16x16.SharpQuery.Table                    = SharpQueryIcons\Icons.16x16.SharpQuery.Table.png
Icons.16x16.SharpQuery.View                     = SharpQueryIcons\Icons.16x16.SharpQuery.View.png
Icons.16x16.SharpQuery.Procedure                = SharpQueryIcons\Icons.16x16.SharpQuery.Procedure.png
Icons.16x16.SharpQuery.Column                   = SharpQueryIcons\Icons.16x16.SharpQuery.Column.png
Icons.16x16.SharpQuery.NodeError                = SharpQueryIcons\Icons.16x16.SharpQuery.NodeError.png
Icons.16x16.SharpQuery.Refresh                  = SharpQueryIcons\Icons.16x16.SharpQuery.Refresh.png
Icons.16x16.SharpQuery.AddConnection            = SharpQueryIcons\Icons.16x16.SharpQuery.AddConnection.png
Icons.16x16.SharpQuery.Remove                   = SharpQueryIcons\Icons.16x16.SharpQuery.Remove.png

#classbrowser icons
Icons.16x16.NameSpace                             = ClassBrowserIcons\Icons.16x16.NameSpace.png
Icons.16x16.Literal                               = ClassBrowserIcons\Icons.16x16.Literal.png
Icons.16x16.Reference                             = ClassBrowserIcons\Icons.16x16.Reference.png
Icons.16x16.Keyword                               = ClassBrowserIcons\Icons.16x16.Keyword.png


Icons.16x16.Class                                 = ClassBrowserIcons\Icons.16x16.Class.png
Icons.16x16.Struct                                = ClassBrowserIcons\Icons.16x16.Struct.png
Icons.16x16.Enum                                  = ClassBrowserIcons\Icons.16x16.Enum.png
Icons.16x16.Interface                             = ClassBrowserIcons\Icons.16x16.Interface.png
Icons.16x16.Delegate                              = ClassBrowserIcons\Icons.16x16.Delegate.png
Icons.16x16.Method                                = ClassBrowserIcons\Icons.16x16.Method.png
Icons.16x16.Operator                              = ClassBrowserIcons\Icons.16x16.Operator.png
Icons.16x16.Property                              = ClassBrowserIcons\Icons.16x16.Property.png
Icons.16x16.Indexer                               = ClassBrowserIcons\Icons.16x16.Indexer.png
Icons.16x16.Field                                 = ClassBrowserIcons\Icons.16x16.Field.png
Icons.16x16.Event                                 = ClassBrowserIcons\Icons.16x16.Event.png

Icons.16x16.Local                                 = ClassBrowserIcons\Icons.16x16.Local.png
Icons.16x16.Parameter                             = ClassBrowserIcons\Icons.16x16.Parameter.png

Icons.16x16.PrivateClass                          = ClassBrowserIcons\Icons.16x16.PrivateClass.png
Icons.16x16.PrivateStruct                         = ClassBrowserIcons\Icons.16x16.PrivateStruct.png
Icons.16x16.PrivateEnum                           = ClassBrowserIcons\Icons.16x16.PrivateEnum.png
Icons.16x16.PrivateInterface                      = ClassBrowserIcons\Icons.16x16.PrivateInterface.png
Icons.16x16.PrivateDelegate                       = ClassBrowserIcons\Icons.16x16.PrivateDelegate.png
Icons.16x16.PrivateMethod                         = ClassBrowserIcons\Icons.16x16.PrivateMethod.png
Icons.16x16.PrivateProperty                       = ClassBrowserIcons\Icons.16x16.PrivateProperty.png
Icons.16x16.PrivateIndexer                        = ClassBrowserIcons\Icons.16x16.PrivateIndexer.png
Icons.16x16.PrivateField                          = ClassBrowserIcons\Icons.16x16.PrivateField.png
Icons.16x16.PrivateEvent                          = ClassBrowserIcons\Icons.16x16.PrivateEvent.png

Icons.16x16.ProtectedClass                        = ClassBrowserIcons\Icons.16x16.ProtectedClass.png
Icons.16x16.ProtectedStruct                       = ClassBrowserIcons\Icons.16x16.ProtectedStruct.png
Icons.16x16.ProtectedEnum                         = ClassBrowserIcons\Icons.16x16.ProtectedEnum.png
Icons.16x16.ProtectedInterface                    = ClassBrowserIcons\Icons.16x16.ProtectedInterface.png
Icons.16x16.ProtectedDelegate                     = ClassBrowserIcons\Icons.16x16.ProtectedDelegate.png
Icons.16x16.ProtectedMethod                       = ClassBrowserIcons\Icons.16x16.ProtectedMethod.png
Icons.16x16.ProtectedProperty                     = ClassBrowserIcons\Icons.16x16.ProtectedProperty.png
Icons.16x16.ProtectedIndexer                      = ClassBrowserIcons\Icons.16x16.ProtectedIndexer.png
Icons.16x16.ProtectedField                        = ClassBrowserIcons\Icons.16x16.ProtectedField.png
Icons.16x16.ProtectedEvent                        = ClassBrowserIcons\Icons.16x16.ProtectedEvent.png

Icons.16x16.InternalClass                         = ClassBrowserIcons\Icons.16x16.InternalClass.png
Icons.16x16.InternalStruct                        = ClassBrowserIcons\Icons.16x16.InternalStruct.png
Icons.16x16.InternalEnum                          = ClassBrowserIcons\Icons.16x16.InternalEnum.png
Icons.16x16.InternalInterface                     = ClassBrowserIcons\Icons.16x16.InternalInterface.png
Icons.16x16.InternalDelegate                      = ClassBrowserIcons\Icons.16x16.InternalDelegate.png
Icons.16x16.InternalMethod                        = ClassBrowserIcons\Icons.16x16.InternalMethod.png
Icons.16x16.InternalProperty                      = ClassBrowserIcons\Icons.16x16.InternalProperty.png
Icons.16x16.InternalIndexer                       = ClassBrowserIcons\Icons.16x16.InternalIndexer.png
Icons.16x16.InternalField                         = ClassBrowserIcons\Icons.16x16.InternalField.png
Icons.16x16.InternalEvent                         = ClassBrowserIcons\Icons.16x16.InternalEvent.png

#bookmark icons
Bookmarks.ClearAll                                = Bookmarks\ClearAll.png
Bookmarks.GotoNext                                = Bookmarks\GotoNext.png
Bookmarks.GotoNextInFile                          = Bookmarks\GotoNextInFile.png
Bookmarks.GotoNextInFolder                        = Bookmarks\GotoNextInFolder.png
Bookmarks.GotoPrev                                = Bookmarks\GotoPrev.png
Bookmarks.GotoPrevInFile                          = Bookmarks\GotoPrevInFile.png
Bookmarks.GotoPrevInFolder                        = Bookmarks\GotoPrevInFolder.png
Bookmarks.ToggleMark                              = Bookmarks\ToggleMark.png
Bookmarks.DeleteMark                              = Bookmarks\DeleteMark.png
Bookmarks.DeleteAllMarks                          = Bookmarks\DeleteAllMarks.png
Bookmarks.EnableDisableAll                        = Bookmarks\EnableDisableAll.png
Bookmarks.EnableDisableMark                       = Bookmarks\EnableDisableMark.png

#backend icons
C#.ProjectIcon                                    = backendicons\CSharp\SmallProject.png
C#.FileIcon                                       = backendicons\CSharp\SmallFile.png

C#.File.EmptyFile                                 = backendicons\CSharp\file\EmptyFile.png
C#.File.Form                                      = backendicons\CSharp\file\Form.png
C#.File.FullFile                                  = backendicons\CSharp\file\FullFile.png
C#.File.NewClass                                  = backendicons\CSharp\file\NewClass.png
C#.File.WebFile                                   = backendicons\CSharp\file\WebFile.png
C#.Project.EmptyProject                           = backendicons\CSharp\project\EmptyProject.png
C#.Project.DOSProject                             = backendicons\CSharp\project\DOSProject.png
C#.Project.Form                                   = backendicons\CSharp\project\Form.png
C#.Project.FullProject                            = backendicons\CSharp\project\FullProject.png
C#.Project.ServiceProject                         = backendicons\CSharp\project\ServiceProject.png
C#.Project.UserControl                            = backendicons\CSharp\project\UserControl.png
C#.Project.WebProject                             = backendicons\CSharp\project\WebProject.png
C#.Project.Library                                = backendicons\CSharp\project\Library.png
C#.Project.ControlLibrary                         = backendicons\CSharp\project\ControlLibrary.png

VBNet.ProjectIcon                                    = backendicons\VBNet\SmallProject.png
VBNet.FileIcon                                       = backendicons\VBNet\SmallFile.png

VBNet.File.EmptyFile                                 = backendicons\VBNet\file\EmptyFile.png
VBNet.File.Form                                      = backendicons\VBNet\file\Form.png
VBNet.File.FullFile                                  = backendicons\VBNet\file\FullFile.png
VBNet.File.NewClass                                  = backendicons\VBNet\file\NewClass.png
VBNet.File.WebFile                                   = backendicons\VBNet\file\WebFile.png
VBNet.Project.EmptyProject                           = backendicons\VBNet\project\EmptyProject.png
VBNet.Project.DOSProject                             = backendicons\VBNet\project\DOSProject.png
VBNet.Project.Form                                   = backendicons\VBNet\project\Form.png
VBNet.Project.FullProject                            = backendicons\VBNet\project\FullProject.png
VBNet.Project.ServiceProject                         = backendicons\VBNet\project\ServiceProject.png
VBNet.Project.UserControl                            = backendicons\VBNet\project\UserControl.png
VBNet.Project.WebProject                             = backendicons\VBNet\project\WebProject.png
VBNet.Project.Library                                = backendicons\VBNet\project\Library.png
VBNet.Project.ControlLibrary                         = backendicons\VBNet\project\ControlLibrary.png

Java.ProjectIcon                                  = backendicons\Java\SmallProject.png
Java.FileIcon                                     = backendicons\Java\SmallFile.png

Java.File.EmptyFile                               = backendicons\Java\file\EmptyFile.png
Java.File.Form                                    = backendicons\Java\file\Form.png
Java.File.FullFile                                = backendicons\Java\file\FullFile.png
Java.File.NewClass                                = backendicons\Java\file\NewClass.png
Java.File.WebFile                                 = backendicons\Java\file\WebFile.png
Java.Project.EmptyProject                         = backendicons\Java\project\EmptyProject.png
Java.Project.DOSProject                           = backendicons\Java\project\DOSProject.png
Java.Project.Form                                 = backendicons\Java\project\Form.png
Java.Project.FullProject                          = backendicons\Java\project\FullProject.png
Java.Project.ServiceProject                       = backendicons\Java\project\ServiceProject.png
Java.Project.UserControl                          = backendicons\Java\project\UserControl.png
Java.Project.WebProject                           = backendicons\Java\project\WebProject.png
Java.Project.Library                              = backendicons\Java\project\Library.png
Java.Project.ControlLibrary                       = backendicons\Java\project\ControlLibrary.png


JScript.ProjectIcon                               = backendicons\JScript\SmallProject.png
JScript.FileIcon                                  = backendicons\JScript\SmallFile.png

JScript.File.EmptyFile                            = backendicons\JScript\file\EmptyFile.png
JScript.File.Form                                 = backendicons\JScript\file\Form.png
JScript.File.FullFile                             = backendicons\JScript\file\FullFile.png
JScript.File.NewClass                             = backendicons\JScript\file\NewClass.png
JScript.File.WebFile                              = backendicons\JScript\file\WebFile.png
JScript.Project.EmptyProject                      = backendicons\JScript\project\EmptyProject.png
JScript.Project.DOSProject                        = backendicons\JScript\project\DOSProject.png
JScript.Project.Form                              = backendicons\JScript\project\Form.png
JScript.Project.FullProject                       = backendicons\JScript\project\FullProject.png
JScript.Project.ServiceProject                    = backendicons\JScript\project\ServiceProject.png
JScript.Project.UserControl                       = backendicons\JScript\project\UserControl.png
JScript.Project.WebProject                        = backendicons\JScript\project\WebProject.png
JScript.Project.Library                           = backendicons\JScript\project\Library.png
JScript.Project.ControlLibrary                    = backendicons\JScript\project\ControlLibrary.png

C++.ProjectIcon                                   = backendicons\cpp\SmallProject.png
C++.FileIcon                                      = backendicons\cpp\SmallFile.png

C++.File.EmptyFile                                = backendicons\cpp\file\EmptyFile.png
C++.File.Form                                     = backendicons\cpp\file\Form.png
C++.File.FullFile                                 = backendicons\cpp\file\FullFile.png
C++.File.NewClass                                 = backendicons\cpp\file\NewClass.png
C++.File.WebFile                                  = backendicons\cpp\file\WebFile.png
C++.Project.EmptyProject                          = backendicons\cpp\project\EmptyProject.png
C++.Project.DOSProject                            = backendicons\cpp\project\DOSProject.png
C++.Project.Form                                  = backendicons\cpp\project\Form.png
C++.Project.FullProject                           = backendicons\cpp\project\FullProject.png
C++.Project.ServiceProject                        = backendicons\cpp\project\ServiceProject.png
C++.Project.UserControl                           = backendicons\cpp\project\UserControl.png
C++.Project.WebProject                            = backendicons\cpp\project\WebProject.png
C++.Project.Library                               = backendicons\cpp\project\Library.png
C++.Project.ControlLibrary                        = backendicons\cpp\project\ControlLibrary.png

Boo.FileIcon                                      = backendicons\boo\Boo.FileIcon.png
Boo.File.EmptyFile                                = backendicons\boo\Boo.File.EmptyFile.png
Boo.File.Form                                     = backendicons\boo\Boo.File.Form.png
Boo.Project.EmptyProject                          = backendicons\boo\Boo.Project.EmptyProject.png
Boo.Project.Form                                  = backendicons\boo\Boo.Project.Form.png
Boo.ProjectIcon                                   = backendicons\boo\Boo.ProjectIcon.png

F#.ProjectIcon                                    = backendicons\FSharp\F#.ProjectIcon.png
F#.FileIcon                                       = backendicons\FSharp\F#.FileIcon.png

# misc backend icons
FileIcons.XmlIcon                                 = backendicons\miscFiles\Icons.16x16.XMLFileIcon.png
Icons.16x16.ResourceFileIcon                      = backendicons\miscFiles\Icons.16x16.ResourceFileIcon.png
Icons.16x16.HTMLIcon                              = backendicons\miscFiles\Icons.16x16.HTMLIcon.png
Icons.16x16.XMLFileIcon                           = backendicons\miscFiles\Icons.16x16.XMLFileIcon.png
Icons.16x16.TextFileIcon                          = backendicons\miscFiles\Icons.16x16.TextFileIcon.png
Icons.16x16.CombineIcon                           = backendicons\miscFiles\Icons.16x16.CombineIcon.png
Icons.16x16.MiscFiles                             = backendicons\miscFiles\Icons.16x16.MiscFiles.png
Icons.16x16.SolutionIcon                          = backendicons\miscFiles\Icons.16x16.SolutionIcon.png
Icons.16x16.StrongNameKeyFileIcon                 = backendicons\miscFiles\Icons.16x16.StrongNameKeyFileIcon.png

Icons.32x32.EmptyFileIcon                         = backendicons\miscFiles\Icons.32x32.EmptyFileIcon.png
Icons.32x32.HTMLFileIcon                          = backendicons\miscFiles\Icons.32x32.HTMLFileIcon.png
Icons.32x32.XMLFileIcon                           = backendicons\miscFiles\Icons.32x32.XMLFileIcon.png
Icons.32x32.TextFileIcon                          = backendicons\miscFiles\Icons.32x32.TextFileIcon.png
Icons.32x32.EmptyProjectIcon                      = backendicons\miscFiles\Icons.32x32.EmptyProjectIcon.png
Icons.32x32.CombineIcon                           = backendicons\miscFiles\Icons.32x32.CombineIcon.png
Icons.32x32.ResourceFileIcon                      = backendicons\miscFiles\Icons.32x32.ResourceFileIcon.png

Icons.16x16.AddInIcon = backendicons\miscFiles\AddIn16.png
Icons.32x32.AddInIcon = backendicons\miscFiles\AddIn32.png

Icons.16x16.CSSIcon = backendicons\miscFiles\CSS_16.png
Icons.32x32.CSSIcon = backendicons\miscFiles\CSS_32.png
Icons.16x16.DTDIcon = backendicons\miscFiles\DTD_16.png
Icons.32x32.DTDIcon = backendicons\miscFiles\DTD_32.png
Icons.16x16.XSDIcon = backendicons\miscFiles\XSD_16.png
Icons.32x32.XSDIcon = backendicons\miscFiles\XSD_32.png
Icons.16x16.XSLIcon = backendicons\miscFiles\XSL_16.png
Icons.32x32.XSLIcon = backendicons\miscFiles\XSL_32.png
Icons.16x16.ASPFileIcon = backendicons\miscFiles\ASP_16.png
Icons.32x32.ASPFileIcon = backendicons\miscFiles\ASP_32.png

HtmlHelp2.16x16.DynamicHelp   = PadIcons\HtmlHelp2.16x16.DynamicHelp.png
HtmlHelp2.16x16.Favorites     = PadIcons\HtmlHelp2.16x16.Favorites.png
HtmlHelp2.16x16.Index         = PadIcons\HtmlHelp2.16x16.Index.png
HtmlHelp2.16x16.IndexResults  = PadIcons\HtmlHelp2.16x16.IndexResults.png
HtmlHelp2.16x16.Search        = PadIcons\HtmlHelp2.16x16.Search.png
HtmlHelp2.16x16.SearchResults = PadIcons\HtmlHelp2.16x16.SearchResults.png
HtmlHelp2.16x16.Toc           = PadIcons\HtmlHelp2.16x16.Toc.png

CodeCoverage.Icons.16x16.Pad             = CodeCoverageIcons\CodeCoverage.Icons.16x16.Pad.png
CodeCoverage.Icons.16x16.File            = CodeCoverageIcons\CodeCoverage.Icons.16x16.File.png
CodeCoverage.Icons.16x16.Run             = CodeCoverageIcons\CodeCoverage.Icons.16x16.Run.png

#SharpReport icons
Icons.16x16.SharpReport.Ascending = SharpReportIcons\Icons.16x16.SharpReport.Ascending.png
Icons.16x16.SharpReport.Descending = SharpReportIcons\Icons.16x16.SharpReport.Descending.png 
Icons.16x16.SharpReport.Function = SharpReportIcons\Icons.16x16.SharpReport.Function.ico
Icons.16.16.SharpReport.Textbox = SharpReportIcons\Icons.16.16.SharpReport.Textbox.ico
Icons.16.16.SharpReport.Line = SharpReportIcons\Icons.16.16.SharpReport.Line.ico
Icons.16x16.SharpReport.Rectangle = SharpReportIcons\Icons.16x16.SharpReport.Rectangle.png

#ViewNavigation icons
Icons.16x16.NavigateBack                 = NavigationIcons\Icons.16x16.NavigateBack.png
Icons.16x16.NavigateBack.disabled        = NavigationIcons\Icons.16x16.NavigateBack.disabled.png
Icons.16x16.NavigateForward              = NavigationIcons\Icons.16x16.NavigateForward.png

#Setup icons (Wix)
Setup.Icons.16x16.SetupDialogsPad = SetupIcons\Setup.Icons.16x16.SetupDialogsPad.png
Setup.Icons.16x16.Component = SetupIcons\Setup.Icons.16x16.Component.png

#Python icons
Python.ProjectBrowser.File                             = backendicons\Python\Python.ProjectBrowser.File.png
Python.ProjectBrowser.Project                          = backendicons\Python\Python.ProjectBrowser.Project.png
Python.Template.Class                                  = backendicons\Python\Python.Template.Class.png
Python.Template.EmptyFile                              = backendicons\Python\Python.Template.EmptyFile.png
Python.Template.Form                                   = backendicons\Python\Python.Template.Form.png
Python.Template.ConsoleProject                         = backendicons\Python\Python.Template.ConsoleProject.png
Python.Template.WinFormsProject                        = backendicons\Python\Python.Template.WinFormsProject.png
Python.Template.LibraryProject                         = backendicons\Python\Python.Template.LibraryProject.png

#Ruby icons
Ruby.ProjectBrowser.File                             = backendicons\Ruby\Ruby.ProjectBrowser.File.png
Ruby.ProjectBrowser.Project                          = backendicons\Ruby\Ruby.ProjectBrowser.Project.png
Ruby.Template.Class                                  = backendicons\Ruby\Ruby.Template.Class.png
Ruby.Template.EmptyFile                              = backendicons\Ruby\Ruby.Template.EmptyFile.png
Ruby.Template.Form                                   = backendicons\Ruby\Ruby.Template.Form.png
Ruby.Template.ConsoleProject                         = backendicons\Ruby\Ruby.Template.ConsoleProject.png
Ruby.Template.WinFormsProject                        = backendicons\Ruby\Ruby.Template.WinFormsProject.png
Ruby.Template.LibraryProject                         = backendicons\Ruby\Ruby.Template.LibraryProject.png
